^C:\USERS\LABAN\DOCUMENTS\PARTICLES\PARTICLESAPI\PARTICLESAPI\X64\DEBUG\DEBUG.OBJ|C:\USERS\LABAN\DOCUMENTS\PARTICLES\PARTICLESAPI\PARTICLESAPI\X64\DEBUG\DELTATIME.OBJ|C:\USERS\LABAN\DOCUMENTS\PARTICLES\PARTICLESAPI\PARTICLESAPI\X64\DEBUG\ENGINE.OBJ|C:\USERS\LABAN\DOCUMENTS\PARTICLES\PARTICLESAPI\PARTICLESAPI\X64\DEBUG\INPUT.OBJ|C:\USERS\LABAN\DOCUMENTS\PARTICLES\PARTICLESAPI\PARTICLESAPI\X64\DEBUG\PARTICLE.OBJ|C:\USERS\LABAN\DOCUMENTS\PARTICLES\PARTICLESAPI\PARTICLESAPI\X64\DEBUG\PARTICLEEMITTER.OBJ|C:\USERS\LABAN\DOCUMENTS\PARTICLES\PARTICLESAPI\PARTICLESAPI\X64\DEBUG\PARTICLESAPI.OBJ|C:\USERS\LABAN\DOCUMENTS\PARTICLES\PARTICLESAPI\PARTICLESAPI\X64\DEBUG\RANDOMIZER.OBJ|C:\USERS\LABAN\DOCUMENTS\PARTICLES\PARTICLESAPI\PARTICLESAPI\X64\DEBUG\STDAFX.OBJ|C:\USERS\LABAN\DOCUMENTS\PARTICLES\PARTICLESAPI\PARTICLESAPI\X64\DEBUG\WINDOW.OBJ
C:\USERS\LABAN\DOCUMENTS\PARTICLES\PARTICLESAPI\X64\DEBUG\PARTICLESAPI.ILK
C:\USERS\LABAN\DOCUMENTS\PARTICLES\PARTICLESAPI\X64\DEBUG\PARTICLESAPI.EXE
C:\USERS\LABAN\DOCUMENTS\PARTICLES\PARTICLESAPI\X64\DEBUG\PARTICLESAPI.PDB
